0
0
0
0
0
0
0
0
0.038
0.148
0.257
0.34
0.222
0.364
0.371
0.201
0.109
0
0
0
0
0
0
0
0
0
0
0
0
0
0
0
0.044
0.086
0.296
0.197
0.219
0.42
0.346
0.232
0.102
0
0
0
0
0
0
0
0
0
0
0
0
0
0
0
0.044
0.1
0.295
0.429
0.478
0.46
0.346
0.136
0.06
0
0
0
0
0
0
0
0
0
0
0
0
0
0
0
0.052
0.2
0.344
0.455
0.507
0.488
0.403
0.27
0.12
0
0
0
0
0
0
0
0
0
0
0
0
0
0
0
0.028
0.105
0.334
0.44
0.49
0.256
0.39
0.262
0.117
0
0
0
0
0
0
0
0
0
0
0
0
0
0
0
0.05
0.191
0.329
0.416
0.483
0.465
0.368
0.146
0.112
0
0
0
0
0
0
0
0
0
0
0
0
0
0
0
0.027
0.098
0.088
0.222
0.247
0.238
0.196
0.069
0.06
0
0
0
0
0
0
0
0
0
0
0
0
0
0
0
0.032
0.058
0.194
0.256
0.285
0.14
0.227
0.153
0.035
0
0
0
0
0
0
0
0
0
0
0
0
0
0
0
0.037
0.061
0.226
0.137
0.331
0.319
0.121
0.082
0.082
0
0
0
0
0
0
0
0
0
0
0
0
0
0
0
0.054
0.074
0.126
0.166
0.469
0.452
0.147
0.1
0.046
0
0
0
0
0
0
0
0
0
0
0
0
0
0
0
0.04
0.138
0.091
0.12
0.34
0.128
0.106
0.184
0.033
0
0
0
0
0
0
0
0
0
0
0
0
0
0
0
0.071
0.069
0.117
0.153
0.17
0.164
0.473
0.092
0.15
0
0
0
0
0
0
0
0
0
0
0
0
0
0
0
0
0
0
0
0
0
0
0
0
0
0
0
0
0
0
0
0
0
0
0
0
0
0
0
0.003
0.01
0.017
0.022
0.025
0.024
0.02
0.014
0.006
0
0
0
0
0
0
0
0
0
0
0
0
0
0
0
0.042
0.137
0.103
0.134
0.149
0.319
0.266
0.182
0.039
0
0
0
0
0
0
0
0
0
0
0
0
0
0
0
0.05
0.068
0.265
0.346
0.164
0.158
0.308
0.09
0.043
0
0
0
0
0
0
0
0
0
0
0
0
0
0
0
0.073
0.226
0.376
0.49
0.544
0.525
0.437
0.3
0.144
0.001
0
0
0
0
0
0
0
0
0
0
0
0
0
0
0.043
0.227
0.376
0.49
0.543
0.524
0.437
0.301
0.146
0.003
0
0
0
0
0
0
0
0
0
0
0
0
0
0
0.076
0.229
0.379
0.492
0.545
0.526
0.439
0.303
0.148
0.004
0
0
0
0
0
0
0
0
0
0
0
0
0
0
0.045
0.23
0.378
0.491
0.543
0.524
0.438
0.303
0.086
0.006
0
0
0
0
0
0
0
0
0
0
0
0
0
0
0.076
0.131
0.365
0.487
0.524
0.52
0.435
0.302
0.149
0.008
0
0
0
0
0
0
0
0
0
0
0
0
0
0
0.083
0.239
0.391
0.506
0.559
0.54
0.452
0.314
0.156
0.01
0
0
0
0
0
0
0
0
0
0
0
0
0
0
0.086
0.242
0.394
0.51
0.563
0.544
0.456
0.318
0.159
0.012
0
0
0
0
0
0
0
0
0
0
0
0
0
0
0.051
0.249
0.403
0.52
0.574
0.555
0.465
0.184
0.164
0.008
0
0
0
0
0
0
0
0
0
0
0
0
0
0
0.051
0.269
0.434
0.29
0.617
0.31
0.5
0.35
0.178
0.009
0
0
0
0
0
0
0
0
0
0
0
0
0
0
0.073
0.384
0.316
0.239
0.449
0.434
0.214
0.256
0.077
0.014
0
0
0
0
0
0
0
0
0
0
0
0
0
0
0.072
0.113
0.309
0.397
0.667
0.424
0.209
0.147
0.076
0.009
0
0
0
0
0
0
0
0
0
0
0
0
0
0
0.101
0.265
0.423
0.543
0.599
0.579
0.487
0.344
0.178
0.024
0
0
0
0
0
0
0
0
0
0
0
0
0
0
0.078
0.119
0.323
0.428
0.456
0.457
0.385
0.272
0.137
0.012
0
0
0
0
0
0
0
0
0
0
0
0
0
0
0.099
0.148
0.4
0.527
0.563
0.561
0.473
0.336
0.176
0.027
0
0
0
0
0
0
0
0
0
0
0
0
0
0
0.081
0.12
0.323
0.439
0.454
0.467
0.371
0.263
0.139
0.013
0
0
0
0
0
0
0
0
0
0
0
0
0
0
0.095
0.236
0.433
0.473
0.306
0.503
0.496
0.303
0.161
0.017
0
0
0
0
0
0
0
0
0
0
0
0
0
0
0.06
0.26
0.408
0.519
0.571
0.552
0.467
0.189
0.179
0.019
0
0
0
0
0
0
0
0
0
0
0
0
0
0
0.066
0.283
0.441
0.561
0.616
0.596
0.283
0.362
0.195
0.038
0
0
0
0
0
0
0
0
0
0
0
0
0
0
0.095
0.318
0.494
0.446
0.288
0.474
0.402
0.169
0.092
0.019
0
0
0
0
0
0
0
0
0
0
0
0
0
0
0.044
0.104
0.161
0.204
0.223
0.216
0.184
0.132
0.072
0.016
0
0
0
0
0
0
0
0
0
0
0
0
0
0
0.112
0.152
0.4
0.297
0.556
0.669
0.457
0.33
0.226
0.051
0
0
0
0
0
0
0
0
0
0
0
0
0
0
0.074
0.17
0.498
0.629
0.362
0.668
0.568
0.411
0.12
0.054
0
0
0
0
0
0
0
0
0
0
0
0
0
0
0.133
0.301
0.461
0.582
0.637
0.617
0.526
0.381
0.212
0.052
0
0
0
0
0
0
0
0
0
0
0
0
0
0
0.073
0.281
0.429
0.54
0.591
0.573
0.488
0.355
0.199
0.029
0
0
0
0
0
0
0
0
0
0
0
0
0
0
0.148
0.145
0.22
0.276
0.685
0.664
0.25
0.182
0.233
0.061
0
0
0
0
0
0
0
0
0
0
0
0
0
0
0.074
0.28
0.424
0.532
0.582
0.564
0.482
0.352
0.2
0.054
0
0
0
0
0
0
0
0
0
0
0
0
0
0
0.104
0.225
0.339
0.425
0.216
0.45
0.179
0.131
0.075
0.045
0
0
0
0
0
0
0
0
0
0
0
0
0
0
0.253
0.166
0.25
0.312
0.341
0.811
0.283
0.208
0.119
0.113
0
0
0
0
0
0
0
0
0
0
0
0
0
0.001
0.162
0.189
0.515
0.353
0.703
0.682
0.584
0.429
0.248
0.074
0
0
0
0
0
0
0
0
0
0
0
0
0
0.005
0.158
0.333
0.497
0.62
0.677
0.656
0.563
0.415
0.241
0.074
0
0
0
0
0
0
0
0
0
0
0
0
0
0.004
0.158
0.329
0.49
0.61
0.666
0.646
0.555
0.233
0.24
0.043
0
0
0
0
0
0
0
0
0
0
0
0
0
0.009
0.146
0.287
0.25
0.528
0.606
0.588
0.505
0.356
0.22
0.071
0
0
0
0
0
0
0
0
0
0
0
0
0
0.003
0.04
0.081
0.12
0.149
0.162
0.158
0.135
0.101
0.059
0.02
0
0
0
0
0
0
0
0
0
0
0
0
0
0.014
0.09
0.31
0.268
0.565
0.68
0.66
0.515
0.423
0.228
0.045
0
0
0
0
0
0
0
0
0
0
0
0
0
0.018
0.099
0.338
0.502
0.622
0.677
0.657
0.566
0.422
0.252
0.087
0
0
0
0
0
0
0
0
0
0
0
0
0
0.02
0.079
0.157
0.484
0.285
0.651
0.632
0.26
0.194
0.245
0.087
0
0
0
0
0
0
0
0
0
0
0
0
0
0.049
0.069
0.136
0.199
0.245
0.267
0.259
0.224
0.168
0.101
0.175
0
0
0
0
0
0
0
0
0
0
0
0
0
0.016
0.186
0.363
0.527
0.65
0.706
0.686
0.593
0.445
0.27
0.1
0
0
0
0
0
0
0
0
0
0
0
0
0
0.035
0.097
0.188
0.615
0.335
0.822
0.798
0.306
0.23
0.14
0.053
0
0
0
0
0
0
0
0
0
0
0
0
0
0.019
0.108
0.1
0.299
0.177
0.399
0.187
0.336
0.253
0.155
0.029
0
0
0
0
0
0
0
0
0
0
0
0
0
0.02
0.19
0.208
0.521
0.639
0.694
0.674
0.584
0.441
0.272
0.106
0
0
0
0
0
0
0
0
0
0
0
0
0
0.039
0.115
0.371
0.538
0.66
0.716
0.696
0.603
0.457
0.283
0.112
0
0
0
0
0
0
0
0
0
0
0
0
0
0.024
0.223
0.215
0.308
0.73
0.792
0.77
0.668
0.262
0.163
0.127
0
0
0
0
0
0
0
0
0
0
0
0
0
0.049
0.082
0.412
0.218
0.718
0.289
0.281
0.244
0.499
0.116
0.047
0
0
0
0
0
0
0
0
0
0
0
0
0
0.048
0.219
0.383
0.32
0.665
0.759
0.738
0.609
0.489
0.307
0.127
0
0
0
0
0
0
0
0
0
0
0
0
0
0.048
0.198
0.365
0.519
0.632
0.684
0.665
0.579
0.442
0.277
0.068
0
0
0
0
0
0
0
0
0
0
0
0
0
0.031
0.228
0.415
0.317
0.386
0.773
0.752
0.656
0.501
0.317
0.136
0
0
0
0
0
0
0
0
0
0
0
0
0
0.061
0.231
0.417
0.246
0.714
0.323
0.752
0.274
0.21
0.134
0.058
0
0
0
0
0
0
0
0
0
0
0
0
0
0.037
0.257
0.46
0.647
0.419
0.849
0.44
0.721
0.553
0.354
0.155
0
0
0
0
0
0
0
0
0
0
0
0
0
0.035
0.124
0.415
0.31
0.706
0.763
0.743
0.345
0.499
0.32
0.142
0
0
0
0
0
0
0
0
0
0
0
0
0
0.056
0.082
0.145
0.478
0.245
0.625
0.258
0.226
0.41
0.264
0.05
0
0
0
0
0
0
0
0
0
0
0
0
0
0.063
0.219
0.365
0.3
0.617
0.7
0.682
0.567
0.46
0.298
0.136
0
0
0
0
0
0
0
0
0
0
0
0
0
0.071
0.134
0.398
0.563
0.679
0.733
0.703
0.625
0.483
0.314
0.145
0.001
0
0
0
0
0
0
0
0
0
0
0
0
0.045
0.142
0.129
0.342
0.412
0.445
0.226
0.38
0.294
0.192
0.089
0.001
0
0
0
0
0
0
0
0
0
0
0
0
0.081
0.301
0.519
0.719
0.866
0.767
0.439
0.385
0.299
0.333
0.191
0.008
0
0
0
0
0
0
0
0
0
0
0
0
0.087
0.1
0.171
0.236
0.284
0.306
0.778
0.683
0.203
0.349
0.064
0.01
0
0
0
0
0
0
0
0
0
0
0
0
0.07
0.088
0.151
0.207
0.249
0.619
0.603
0.53
0.179
0.118
0.131
0.004
0
0
0
0
0
0
0
0
0
0
0
0
0.01
0.028
0.048
0.066
0.079
0.085
0.083
0.073
0.057
0.038
0.018
0.002
0
0
0
0
0
0
0
0
0
0
0
0
0.087
0.09
0.412
0.207
0.248
0.267
0.26
0.624
0.488
0.119
0.058
0.006
0
0
0
0
0
0
0
0
0
0
0
0
0.096
0.262
0.258
0.601
0.822
0.884
0.754
0.39
0.52
0.396
0.172
0.024
0
0
0
0
0
0
0
0
0
0
0
0
0.06
0.287
0.479
0.654
0.44
0.841
0.819
0.722
0.566
0.379
0.19
0.026
0
0
0
0
0
0
0
0
0
0
0
0
0.106
0.292
0.484
0.659
0.787
0.846
0.787
0.408
0.546
0.384
0.194
0.029
0
0
0
0
0
0
0
0
0
0
0
0
0.113
0.292
0.195
0.265
0.316
0.34
0.331
0.723
0.569
0.383
0.195
0.032
0
0
0
0
0
0
0
0
0
0
0
0
0.062
0.305
0.259
0.68
0.81
0.869
0.438
0.387
0.59
0.399
0.205
0.036
0
0
0
0
0
0
0
0
0
0
0
0
0.152
0.38
0.235
0.318
0.378
0.406
1.037
0.35
0.73
0.187
0.097
0.018
0
0
0
0
0
0
0
0
0
0
0
0
0.06
0.147
0.239
0.322
0.383
0.411
0.2
0.177
0.28
0.095
0.1
0.01
0
0
0
0
0
0
0
0
0
0
0
0
0.122
0.122
0.198
0.266
0.764
0.339
0.799
0.708
0.232
0.158
0.083
0.018
0
0
0
0
0
0
0
0
0
0
0
0
0.076
0.31
0.5
0.672
0.797
0.854
0.833
0.738
0.586
0.401
0.213
0.047
0
0
0
0
0
0
0
0
0
0
0
0
0.107
0.147
0.237
0.317
0.639
0.685
0.669
0.348
0.277
0.323
0.366
0.098
0
0
0
0
0
0
0
0
0
0
0
0
0.082
0.34
0.543
0.726
0.86
0.517
0.899
0.797
0.634
0.437
0.235
0.057
0
0
0
0
0
0
0
0
0
0
0
0
0.13
0.112
0.179
0.632
0.747
0.302
0.295
0.262
0.208
0.381
0.078
0.052
0
0
0
0
0
0
0
0
0
0
0
0
0.186
0.137
0.216
0.288
0.34
0.364
1.074
0.316
0.776
0.175
0.095
0.025
0
0
0
0
0
0
0
0
0
0
0
0
0.147
0.328
0.244
0.324
0.383
0.869
0.4
0.754
0.602
0.418
0.109
0.03
0
0
0
0
0
0
0
0
0
0
0
0
0.089
0.338
0.53
0.703
0.829
0.887
0.866
0.77
0.616
0.429
0.238
0.067
0
0
0
0
0
0
0
0
0
0
0
0
0
0
0
0
0
0
0
0
0
0
0
0
0
0
0
0
0
0
0
0
0
0
0
0.005
0.153
0.133
0.208
0.274
0.801
0.345
0.337
0.744
0.241
0.418
0.235
0.07
0
0
0
0
0
0
0
0
0
0
0
0.008
0.085
0.372
0.578
0.762
0.436
0.956
0.455
0.833
0.326
0.229
0.265
0.04
0
0
0
0
0
0
0
0
0
0
0
0.009
0.146
0.308
0.476
0.627
0.736
0.786
0.768
0.685
0.551
0.388
0.22
0.041
0
0
0
0
0
0
0
0
0
0
0
0.012
0.185
0.297
0.596
0.601
0.414
0.752
0.959
0.656
0.311
0.219
0.213
0.041
0
0
0
0
0
0
0
0
0
0
0
0.009
0.163
0.338
0.518
0.68
0.452
0.85
0.831
0.742
0.598
0.424
0.243
0.081
0
0
0
0
0
0
0
0
0
0
0
0.007
0.061
0.125
0.191
0.25
0.293
0.313
0.305
0.273
0.221
0.157
0.09
0.031
0
0
0
0
0
0
0
0
0
0
0
0.023
0.184
0.374
0.571
0.746
0.873
0.93
0.909
0.813
0.658
0.468
0.272
0.095
0
0
0
0
0
0
0
0
0
0
0
0.015
0.107
0.388
0.326
0.769
0.899
0.959
0.937
0.838
0.375
0.484
0.283
0.101
0
0
0
0
0
0
0
0
0
0
0
0.025
0.096
0.326
0.61
0.642
0.441
0.799
0.967
0.7
0.333
0.406
0.295
0.086
0
0
0
0
0
0
0
0
0
0
0
0.017
0.19
0.377
0.568
0.739
0.862
0.495
0.484
0.804
0.653
0.468
0.276
0.102
0
0
0
0
0
0
0
0
0
0
0
0.03
0.214
0.42
0.631
0.819
0.754
0.471
0.785
0.413
0.336
0.411
0.308
0.092
0
0
0
0
0
0
0
0
0
0
0
0.03
0.211
0.306
0.27
0.349
0.692
0.433
0.721
0.868
0.526
0.508
0.226
0.116
0
0
0
0
0
0
0
0
0
0
0
0.056
0.281
0.151
0.226
0.292
0.34
0.362
0.354
0.318
0.907
0.669
0.112
0.044
0
0
0
0
0
0
0
0
0
0
0
0.052
0.094
0.179
0.7
0.904
0.402
0.427
0.418
0.982
0.306
0.221
0.133
0.053
0
0
0
0
0
0
0
0
0
0
0
0.041
0.108
0.35
0.52
0.676
0.785
0.835
0.817
0.734
0.599
0.434
0.262
0.105
0
0
0
0
0
0
0
0
0
0
0
0.039
0.1
0.32
0.48
0.618
0.717
0.753
0.737
0.67
0.548
0.398
0.239
0.098
0
0
0
0
0
0
0
0
0
0
0
0.042
0.103
0.193
0.484
0.622
0.424
0.767
0.441
0.675
0.325
0.236
0.245
0.225
0
0
0
0
0
0
0
0
0
0
0
0.017
0.068
0.127
0.187
0.239
0.278
0.295
0.289
0.26
0.213
0.155
0.095
0.04
0
0
0
0
0
0
0
0
0
0
0
0.059
0.107
0.42
0.292
0.791
0.916
0.46
0.451
0.857
0.703
0.243
0.15
0.063
0
0
0
0
0
0
0
0
0
0
0
0.03
0.197
0.362
0.303
0.679
0.786
0.835
0.817
0.736
0.604
0.443
0.273
0.067
0
0
0
0
0
0
0
0
0
0
0
0.045
0.094
0.292
0.25
0.545
0.37
0.669
0.855
0.59
0.633
0.356
0.13
0.096
0
0
0
0
0
0
0
0
0
0
0
0.072
0.251
0.457
0.22
0.849
0.325
0.345
0.338
0.304
0.251
0.184
0.346
0.152
0
0
0
0
0
0
0
0
0
0
0
0.035
0.26
0.211
0.306
0.87
1.005
0.478
0.468
0.423
0.776
0.571
0.16
0.159
0
0
0
0
0
0
0
0
0
0
0
0.057
0.11
0.337
0.287
0.621
0.421
0.446
0.744
1.007
0.83
0.409
0.15
0.068
0
0
0
0
0
0
0
0
0
0
0
0.14
0.11
0.196
0.283
0.36
0.415
1.2
0.43
0.389
0.321
0.237
0.149
0.068
0.003
0
0
0
0
0
0
0
0
0
0
0.091
0.111
0.197
0.284
0.926
0.415
0.44
0.431
1
0.827
0.238
0.15
0.069
0.004
0
0
0
0
0
0
0
0
0
0
0.057
0.359
0.309
0.871
0.563
0.648
0.403
0.395
0.357
0.503
0.219
0.139
0.064
0.003
0
0
0
0
0
0
0
0
0
0
0.058
0.191
0.309
0.481
0.561
0.379
0.684
0.727
0.605
0.544
0.404
0.237
0.065
0.004
0
0
0
0
0
0
0
0
0
0
0.044
0.24
0.42
0.601
0.414
0.874
0.505
0.907
0.82
0.68
0.506
0.323
0.152
0.011
0
0
0
0
0
0
0
0
0
0
0.163
0.1
0.174
0.248
0.313
1.163
0.381
0.374
0.338
0.28
0.209
0.134
0.064
0.005
0
0
0
0
0
0
0
0
0
0
0.032
0.09
0.155
0.221
0.279
0.321
0.34
0.333
0.301
0.25
0.102
0.12
0.031
0.006
0
0
0
0
0
0
0
0
0
0
0.069
0.113
0.331
0.277
0.594
1.168
0.721
0.707
0.376
0.312
0.234
0.256
0.124
0.008
0
0
0
0
0
0
0
0
0
0
0.079
0.127
0.217
0.308
0.661
1.17
0.802
0.462
0.418
0.592
0.261
0.287
0.082
0.017
0
0
0
0
0
0
0
0
0
0
0.096
0.259
0.443
0.627
0.789
0.904
0.957
0.938
0.85
0.707
0.531
0.344
0.169
0.022
0
0
0
0
0
0
0
0
0
0
0.089
0.237
0.404
0.571
0.717
0.821
0.868
0.851
0.772
0.643
0.483
0.314
0.155
0.022
0
0
0
0
0
0
0
0
0
0
0.052
0.245
0.416
0.586
0.736
0.843
0.891
0.873
0.439
0.661
0.276
0.324
0.161
0.014
0
0
0
0
0
0
0
0
0
0
0.077
0.116
0.196
0.471
0.803
0.676
0.419
0.7
0.635
0.53
0.399
0.355
0.131
0.013
0
0
0
0
0
0
0
0
0
0
0.074
0.11
0.316
0.261
0.327
0.374
0.673
0.387
0.352
0.5
0.795
0.247
0.311
0.022
0
0
0
0
0
0
0
0
0
0
0.099
0.25
0.419
0.588
0.736
0.841
0.889
0.871
0.792
0.661
0.5
0.328
0.167
0.031
0
0
0
0
0
0
0
0
0
0
0.054
0.235
0.226
0.549
0.686
0.784
0.828
0.812
0.738
0.617
0.467
0.307
0.157
0.03
0
0
0
0
0
0
0
0
0
0
0.054
0.249
0.219
0.579
0.723
0.826
0.462
0.856
0.778
0.651
0.261
0.172
0.167
0.034
0
0
0
0
0
0
0
0
0
0
0.012
0.029
0.049
0.068
0.085
0.097
0.102
0.1
0.091
0.076
0.058
0.038
0.02
0.004
0
0
0
0
0
0
0
0
0
0
0.089
0.254
0.355
0.585
0.616
0.413
0.742
0.728
0.662
0.657
0.421
0.164
0.145
0.038
0
0
0
0
0
0
0
0
0
0
0.035
0.083
0.136
0.189
0.236
0.269
0.284
0.278
0.253
0.213
0.162
0.107
0.056
0.013
0
0
0
0
0
0
0
0
0
0
0.03
0.071
0.116
0.161
0.201
0.229
0.242
0.237
0.216
0.181
0.138
0.092
0.048
0.011
0
0
0
0
0
0
0
0
0
0
0.054
0.059
0.097
0.285
0.355
0.404
0.201
0.418
0.381
0.151
0.115
0.077
0.086
0.01
0
0
0
0
0
0
0
0
0
0
0.126
0.098
0.16
0.221
0.275
0.932
0.33
0.324
0.295
0.738
0.189
0.377
0.067
0.017
0
0
0
0
0
0
0
0
0
0
0.127
0.292
0.475
0.657
0.815
0.928
0.979
0.96
0.875
0.736
0.562
0.376
0.201
0.051
0
0
0
0
0
0
0
0
0
0
0.122
0.279
0.453
0.625
0.776
0.883
0.931
0.913
0.832
0.7
0.535
0.359
0.193
0.05
0
0
0
0
0
0
0
0
0
0
0.11
0.249
0.403
0.556
0.689
0.784
0.826
0.811
0.739
0.622
0.476
0.32
0.172
0.046
0
0
0
0
0
0
0
0
0
0
0.083
0.087
0.3
0.194
0.513
0.583
0.615
0.282
0.257
0.463
0.166
0.239
0.06
0.035
0
0
0
0
0
0
0
0
0
0
0.083
0.109
0.3
0.243
0.511
0.738
0.778
0.601
0.548
0.271
0.354
0.14
0.13
0.021
0
0
0
0
0
0
0
0
0
0
0.115
0.256
0.411
0.565
0.699
0.794
0.837
0.821
0.749
0.632
0.485
0.328
0.178
0.051
0
0
0
0
0
0
0
0
0
0.002
0.115
0.254
0.408
0.56
0.692
0.786
0.828
0.813
0.742
0.625
0.48
0.325
0.178
0.051
0
0
0
0
0
0
0
0
0
0.003
0.128
0.282
0.451
0.618
0.764
0.867
0.914
0.897
0.818
0.691
0.531
0.36
0.197
0.058
0
0
0
0
0
0
0
0
0
0.004
0.116
0.254
0.406
0.556
0.686
0.779
0.821
0.805
0.735
0.621
0.478
0.324
0.178
0.053
0
0
0
0
0
0
0
0
0
0.005
0.125
0.272
0.434
0.594
0.732
0.831
0.876
0.859
0.785
0.663
0.51
0.347
0.192
0.058
0
0
0
0
0
0
0
0
0
0.003
0.061
0.236
0.375
0.513
0.633
0.718
0.424
0.742
0.678
0.573
0.441
0.301
0.093
0.051
0
0
0
0
0
0
0
0
0
0.006
0.258
0.503
0.352
0.283
0.348
0.395
0.708
0.408
0.373
0.537
0.243
0.282
0.092
0.029
0
0
0
0
0
0
0
0
0
0.002
0.025
0.053
0.084
0.114
0.141
0.16
0.168
0.165
0.151
0.127
0.098
0.067
0.037
0.012
0
0
0
0
0
0
0
0
0
0.005
0.117
0.145
0.395
0.539
0.663
0.752
0.792
0.777
0.71
0.601
0.464
0.317
0.177
0.056
0
0
0
0
0
0
0
0
0
0.008
0.059
0.126
0.339
0.471
0.568
0.656
0.691
0.679
0.62
0.525
0.398
0.277
0.152
0.05
0
0
0
0
0
0
0
0
0
0.004
0.041
0.088
0.138
0.188
0.232
0.262
0.276
0.271
0.248
0.21
0.162
0.111
0.062
0.02
0
0
0
0
0
0
0
0
0
0.009
0.059
0.211
0.195
0.452
0.327
0.63
0.39
0.651
0.748
0.633
0.39
0.336
0.189
0.062
0
0
0
0
0
0
0
0
0
0.006
0.064
0.263
0.211
0.562
0.691
0.783
0.421
0.809
0.378
0.627
0.485
0.17
0.096
0.062
0
0
0
0
0
0
0
0
0
0.009
0.269
0.193
0.179
0.414
0.298
0.575
0.606
0.595
0.319
0.271
0.357
0.245
0.138
0.027
0
0
0
0
0
0
0
0
0
0.007
0.033
0.069
0.22
0.299
0.367
0.415
0.437
0.211
0.193
0.333
0.258
0.087
0.049
0.034
0
0
0
0
0
0
0
0
0
0.013
0.122
0.254
0.399
0.542
0.666
0.754
0.793
0.779
0.712
0.604
0.468
0.322
0.182
0.061
0
0
0
0
0
0
0
0
0
0.015
0.133
0.275
0.431
0.585
0.718
0.813
0.855
0.84
0.768
0.651
0.505
0.348
0.197
0.067
0
0
0
0
0
0
0
0
0
0.013
0.114
0.224
0.371
0.503
0.617
0.662
0.409
0.684
0.66
0.56
0.412
0.299
0.17
0.055
0
0
0
0
0
0
0
0
0
0.016
0.136
0.281
0.44
0.597
0.732
0.828
0.872
0.856
0.783
0.664
0.515
0.355
0.202
0.069
0
0
0
0
0
0
0
0
0
0.015
0.124
0.257
0.402
0.544
0.668
0.755
0.795
0.78
0.714
0.606
0.47
0.324
0.184
0.063
0
0
0
0
0
0
0
0
0
0.008
0.121
0.25
0.391
0.529
0.649
0.404
0.773
0.759
0.382
0.589
0.457
0.315
0.18
0.062
0
0
0
0
0
0
0
0
0
0.015
0.121
0.249
0.39
0.528
0.647
0.732
0.77
0.757
0.693
0.588
0.456
0.315
0.179
0.062
0
0
0
0
0
0
0
0
0
0.009
0.128
0.262
0.409
0.555
0.68
0.769
0.809
0.795
0.403
0.342
0.479
0.331
0.189
0.066
0
0
0
0
0
0
0
0
0
0.013
0.277
0.213
0.333
0.451
0.325
0.368
0.658
0.646
0.348
0.502
0.39
0.158
0.09
0.053
0
0
0
0
0
0
0
0
0
0.009
0.07
0.069
0.107
0.304
0.372
0.421
0.443
0.208
0.191
0.338
0.262
0.087
0.049
0.017
0
0
0
0
0
0
0
0
0
0.014
0.048
0.099
0.154
0.449
0.256
0.622
0.654
0.299
0.588
0.232
0.388
0.268
0.071
0.053
0
0
0
0
0
0
0
0
0
0.016
0.054
0.247
0.173
0.234
0.286
0.724
0.341
0.335
0.685
0.582
0.202
0.312
0.178
0.062
0
0
0
0
0
0
0
0
0
0.009
0.119
0.243
0.38
0.514
0.631
0.405
0.75
0.737
0.675
0.573
0.445
0.307
0.175
0.035
0
0
0
0
0
0
0
0
0
0.016
0.123
0.252
0.394
0.533
0.653
0.739
0.777
0.763
0.699
0.593
0.461
0.318
0.182
0.063
0
0
0
0
0
0
0
0
0
0.014
0.064
0.223
0.204
0.47
0.596
0.674
0.709
0.674
0.637
0.524
0.42
0.29
0.166
0.056
0
0
0
0
0
0
0
0
0
0.013
0.109
0.224
0.349
0.449
0.58
0.622
0.69
0.643
0.346
0.5
0.409
0.282
0.161
0.053
0
0
0
0
0
0
0
0
0
0.012
0.155
0.318
0.304
0.242
0.504
0.335
0.6
0.346
0.539
0.748
0.355
0.144
0.082
0.049
0
0
0
0
0
0
0
0
0
0.013
0.037
0.076
0.319
0.432
0.196
0.599
0.234
0.229
0.21
0.178
0.373
0.095
0.054
0.019
0
0
0
0
0
0
0
0
0
0.013
0.103
0.125
0.332
0.456
0.559
0.623
0.666
0.654
0.59
0.508
0.394
0.272
0.153
0.054
0
0
0
0
0
0
0
0
0
0.009
0.119
0.245
0.384
0.52
0.638
0.721
0.759
0.745
0.682
0.579
0.449
0.31
0.176
0.061
0
0
0
0
0
0
0
0
0
0.013
0.117
0.241
0.376
0.462
0.333
0.641
0.746
0.732
0.606
0.302
0.399
0.304
0.173
0.059
0
0
0
0
0
0
0
0
0
0.017
0.147
0.304
0.176
0.238
0.292
0.897
0.348
0.342
0.313
0.265
0.558
0.384
0.081
0.028
0
0
0
0
0
0
0
0
0
0.005
0.043
0.089
0.139
0.189
0.232
0.263
0.276
0.271
0.248
0.211
0.163
0.112
0.064
0.022
0
0
0
0
0
0
0
0
0
0.011
0.15
0.312
0.316
0.429
0.816
0.596
0.368
0.616
0.563
0.281
0.217
0.15
0.085
0.049
0
0
0
0
0
0
0
0
0
0.014
0.131
0.273
0.429
0.583
0.716
0.81
0.853
0.838
0.766
0.65
0.503
0.346
0.196
0.066
0
0
0
0
0
0
0
0
0
0.007
0.123
0.257
0.226
0.548
0.378
0.762
0.802
0.788
0.721
0.611
0.473
0.325
0.184
0.061
0
0
0
0
0
0
0
0
0
0.01
0.04
0.083
0.131
0.462
0.219
0.248
0.261
0.664
0.235
0.199
0.399
0.274
0.154
0.051
0
0
0
0
0
0
0
0
0
0.009
0.099
0.076
0.12
0.163
0.2
0.618
0.239
0.638
0.214
0.182
0.383
0.096
0.054
0.018
0
0
0
0
0
0
0
0
0
0.008
0.057
0.203
0.336
0.436
0.563
0.637
0.639
0.659
0.603
0.486
0.376
0.151
0.085
0.028
0
0
0
0
0
0
0
0
0
0.011
0.138
0.292
0.461
0.629
0.773
0.876
0.923
0.906
0.828
0.701
0.542
0.371
0.208
0.067
0
0
0
0
0
0
0
0
0
0.012
0.154
0.107
0.169
0.707
0.284
0.321
0.338
0.332
0.933
0.257
0.199
0.417
0.076
0.024
0
0
0
0
0
0
0
0
0
0.005
0.073
0.155
0.246
0.171
0.211
0.468
0.493
0.484
0.442
0.374
0.148
0.197
0.056
0.035
0
0
0
0
0
0
0
0
0
0.006
0.1
0.287
0.34
0.273
0.573
0.381
0.684
0.394
0.614
0.694
0.535
0.273
0.203
0.048
0
0
0
0
0
0
0
0
0
0.002
0.029
0.062
0.099
0.135
0.166
0.189
0.199
0.195
0.178
0.151
0.116
0.079
0.044
0.014
0
0
0
0
0
0
0
0
0
0.002
0.033
0.072
0.114
0.157
0.193
0.219
0.231
0.227
0.207
0.175
0.135
0.092
0.051
0.016
0
0
0
0
0
0
0
0
0
0.001
0.03
0.066
0.105
0.144
0.177
0.201
0.212
0.208
0.19
0.16
0.123
0.084
0.046
0.014
0
0
0
0
0
0
0
0
0
0.003
0.058
0.126
0.201
0.276
0.58
0.762
0.803
0.788
0.72
0.525
0.237
0.274
0.089
0.026
0
0
0
0
0
0
0
0
0
0.002
0.114
0.25
0.4
0.549
0.678
0.77
0.812
0.797
0.728
0.614
0.472
0.32
0.176
0.052
0
0
0
0
0
0
0
0
0
0.001
0.102
0.211
0.362
0.497
0.577
0.698
0.736
0.678
0.363
0.522
0.401
0.271
0.148
0.046
0
0
0
0
0
0
0
0
0
0
0.09
0.2
0.322
0.169
0.209
0.623
0.25
0.245
0.224
0.496
0.145
0.098
0.14
0.015
0
0
0
0
0
0
0
0
0
0
0.11
0.246
0.396
0.545
0.675
0.767
0.809
0.794
0.725
0.61
0.468
0.316
0.171
0.048
0
0
0
0
0
0
0
0
0
0
0.125
0.282
0.455
0.628
0.778
0.884
0.933
0.915
0.835
0.703
0.539
0.363
0.196
0.054
0
0
0
0
0
0
0
0
0
0
0.122
0.277
0.449
0.62
0.769
0.875
0.923
0.906
0.826
0.695
0.532
0.358
0.193
0.052
0
0
0
0
0
0
0
0
0
0
0.108
0.246
0.401
0.554
0.687
0.782
0.825
0.809
0.738
0.621
0.474
0.319
0.171
0.045
0
0
0
0
0
0
0
0
0
0
0.055
0.128
0.433
0.289
0.358
0.408
0.895
0.422
0.8
0.672
0.514
0.344
0.184
0.023
0
0
0
0
0
0
0
0
0
0
0.03
0.071
0.116
0.16
0.199
0.227
0.239
0.235
0.214
0.18
0.137
0.092
0.049
0.012
0
0
0
0
0
0
0
0
0
0
0.06
0.24
0.393
0.546
0.679
0.773
0.816
0.801
0.729
0.613
0.467
0.312
0.165
0.04
0
0
0
0
0
0
0
0
0
0
0.07
0.08
0.131
0.378
0.471
0.259
0.567
0.556
0.244
0.425
0.156
0.215
0.113
0.013
0
0
0
0
0
0
0
0
0
0
0.035
0.084
0.138
0.192
0.239
0.273
0.288
0.283
0.257
0.216
0.164
0.109
0.057
0.013
0
0
0
0
0
0
0
0
0
0
0.078
0.083
0.137
0.191
0.239
0.615
0.288
0.637
0.58
0.486
0.163
0.108
0.128
0.028
0
0
0
0
0
0
0
0
0
0
0.026
0.064
0.107
0.149
0.186
0.213
0.225
0.22
0.201
0.168
0.127
0.084
0.044
0.009
0
0
0
0
0
0
0
0
0
0
0.085
0.124
0.351
0.491
0.88
0.7
0.74
0.426
0.66
0.552
0.246
0.276
0.204
0.029
0
0
0
0
0
0
0
0
0
0
0.082
0.441
0.342
0.899
0.6
0.403
0.724
0.417
0.379
0.317
0.24
0.158
0.138
0.027
0
0
0
0
0
0
0
0
0
0
0.098
0.106
0.178
0.249
0.312
0.357
0.877
0.86
0.336
0.281
0.493
0.324
0.165
0.013
0
0
0
0
0
0
0
0
0
0
0.11
0.281
0.154
0.665
0.27
0.309
1.007
0.321
0.291
0.243
0.184
0.12
0.061
0.011
0
0
0
0
0
0
0
0
0
0
0.068
0.104
0.299
0.891
0.528
0.604
0.375
0.368
0.569
0.475
0.21
0.137
0.069
0.012
0
0
0
0
0
0
0
0
0
0
0.073
0.191
0.678
0.457
0.337
0.386
0.695
0.4
0.618
0.515
0.228
0.149
0.126
0.054
0
0
0
0
0
0
0
0
0
0
0.077
0.435
0.348
0.886
0.618
0.416
0.44
0.431
0.391
0.326
0.245
0.159
0.079
0.02
0
0
0
0
0
0
0
0
0
0
0.074
0.117
0.2
0.483
0.357
0.409
0.737
0.853
0.774
0.644
0.483
0.265
0.154
0.018
0
0
0
0
0
0
0
0
0
0
0.089
0.243
0.417
0.592
0.746
0.856
0.906
0.888
0.805
0.669
0.502
0.324
0.158
0.02
0
0
0
0
0
0
0
0
0
0
0.081
0.226
0.389
0.554
0.698
0.802
0.849
0.832
0.754
0.626
0.469
0.302
0.146
0.016
0
0
0
0
0
0
0
0
0
0
0.092
0.104
0.18
0.256
0.818
0.371
0.393
0.975
0.349
0.733
0.216
0.139
0.067
0.007
0
0
0
0
0
0
0
0
0
0
0.078
0.226
0.394
0.563
0.711
0.817
0.865
0.848
0.767
0.637
0.475
0.304
0.145
0.013
0
0
0
0
0
0
0
0
0
0
0.042
0.213
0.373
0.534
0.675
0.777
0.823
0.806
0.73
0.605
0.259
0.287
0.136
0.01
0
0
0
0
0
0
0
0
0
0
0.066
0.199
0.512
0.502
0.635
0.43
0.455
0.446
0.687
0.832
0.423
0.394
0.126
0.004
0
0
0
0
0
0
0
0
0
0
0.04
0.21
0.37
0.533
0.676
0.778
0.825
0.808
0.73
0.604
0.448
0.284
0.132
0.006
0
0
0
0
0
0
0
0
0
0
0.052
0.095
0.169
0.244
0.31
0.608
0.378
0.631
1.089
0.471
0.205
0.221
0.102
0.002
0
0
0
0
0
0
0
0
0
0
0.082
0.089
0.159
0.23
0.292
0.337
1.054
0.35
0.316
0.77
0.193
0.359
0.055
0.001
0
0
0
0
0
0
0
0
0
0
0.053
0.176
0.145
0.456
0.268
0.309
0.711
0.696
0.289
0.519
0.176
0.24
0.108
0
0
0
0
0
0
0
0
0
0
0
0.05
0.199
0.301
0.257
0.327
0.644
0.815
0.798
0.72
0.497
0.215
0.135
0.06
0
0
0
0
0
0
0
0
0
0
0
0.051
0.083
0.15
0.219
0.279
0.691
0.734
0.336
0.648
0.533
0.392
0.114
0.108
0
0
0
0
0
0
0
0
0
0
0
0.071
0.084
0.154
0.677
0.865
0.333
0.353
0.346
0.312
0.256
0.566
0.117
0.051
0
0
0
0
0
0
0
0
0
0
0
0.018
0.067
0.123
0.18
0.23
0.266
0.283
0.277
0.249
0.205
0.15
0.093
0.04
0
0
0
0
0
0
0
0
0
0
0
0.02
0.076
0.14
0.206
0.264
0.306
0.325
0.318
0.286
0.235
0.172
0.106
0.045
0
0
0
0
0
0
0
0
0
0
0
0.051
0.202
0.171
0.554
0.323
0.824
0.397
0.389
0.771
0.632
0.209
0.128
0.054
0
0
0
0
0
0
0
0
0
0
0
0.061
0.25
0.161
0.238
0.306
0.355
1.095
0.369
0.964
0.272
0.198
0.121
0.05
0
0
0
0
0
0
0
0
0
0
0
0.064
0.273
0.156
0.761
0.979
0.344
0.366
0.358
0.322
0.263
0.191
0.116
0.048
0
0
0
0
0
0
0
0
0
0
0
0.028
0.122
0.113
0.168
0.216
0.515
0.548
0.261
0.482
0.394
0.285
0.173
0.07
0
0
0
0
0
0
0
0
0
0
0
0.043
0.199
0.166
0.247
0.732
0.37
0.906
0.385
0.346
0.649
0.204
0.283
0.049
0
0
0
0
0
0
0
0
0
0
0
0.032
0.091
0.298
0.444
0.574
0.668
0.764
0.695
0.624
0.547
0.367
0.129
0.086
0
0
0
0
0
0
0
0
0
0
0
0.034
0.066
0.345
0.191
0.248
0.289
0.307
0.811
0.269
0.593
0.158
0.255
0.036
0
0
0
0
0
0
0
0
0
0
0
0.017
0.092
0.181
0.131
0.352
0.198
0.437
0.427
0.185
0.311
0.108
0.133
0.05
0
0
0
0
0
0
0
0
0
0
0
0.028
0.096
0.189
0.484
0.37
0.734
0.861
0.764
0.754
0.613
0.44
0.26
0.088
0
0
0
0
0
0
0
0
0
0
0
0.023
0.071
0.142
0.43
0.559
0.653
0.696
0.68
0.303
0.246
0.354
0.104
0.076
0
0
0
0
0
0
0
0
0
0
0
0.005
0.034
0.067
0.102
0.133
0.156
0.166
0.162
0.145
0.118
0.084
0.049
0.018
0
0
0
0
0
0
0
0
0
0
0
0.031
0.233
0.164
0.715
0.325
0.381
0.406
0.397
0.355
0.824
0.204
0.341
0.12
0
0
0
0
0
0
0
0
0
0
0
0.007
0.061
0.125
0.191
0.25
0.293
0.312
0.305
0.273
0.22
0.157
0.091
0.031
0
0
0
0
0
0
0
0
0
0
0
0.002
0.023
0.047
0.072
0.095
0.111
0.119
0.116
0.104
0.084
0.059
0.034
0.011
0
0
0
0
0
0
0
0
0
0
0
0.001
0.014
0.028
0.044
0.057
0.067
0.072
0.07
0.062
0.05
0.036
0.02
0.007
0
0
0
0
0
0
0
0
0
0
0
0.007
0.17
0.357
0.305
0.725
0.85
0.908
0.887
0.438
0.637
0.449
0.256
0.082
0
0
0
0
0
0
0
0
0
0
0
0.005
0.155
0.33
0.511
0.673
0.79
0.844
0.824
0.735
0.591
0.415
0.235
0.073
0
0
0
0
0
0
0
0
0
0
0
0.006
0.197
0.422
0.463
0.611
0.422
0.767
0.44
0.668
0.761
0.376
0.124
0.064
0
0
0
0
0
0
0
0
0
0
0
0.005
0.078
0.407
0.264
0.841
0.99
0.439
0.429
0.382
0.306
0.516
0.12
0.085
0
0
0
0
0
0
0
0
0
0
0
0.001
0.077
0.168
0.447
0.348
0.41
0.746
0.728
0.648
0.817
0.362
0.316
0.057
0
0
0
0
0
0
0
0
0
0
0
0
0.033
0.074
0.116
0.154
0.182
0.194
0.19
0.169
0.135
0.094
0.052
0.014
0
0
0
0
0
0
0
0
0
0
0
0
0
0
0
0.001
0.001
0.001
0.001
0.001
0.001
0
0
0
0
0
0
0
0
0
0
0
0
0
0
0
0.068
0.154
0.126
0.168
0.385
0.412
0.402
0.357
0.285
0.101
0.107
0.028
0
0
0
0
0
0
0
0
0
0
0
0
0.141
0.324
0.225
0.3
0.355
0.874
0.371
0.757
0.262
0.415
0.098
0.056
0
0
0
0
0
0
0
0
0
0
0
0
0.123
0.297
0.457
0.635
0.752
0.806
0.786
0.697
0.533
0.215
0.115
0.027
0
0
0
0
0
0
0
0
0
0
0
0
0.07
0.165
0.495
0.664
0.787
0.453
0.822
0.728
0.578
0.213
0.211
0.048
0
0
0
0
0
0
0
0
0
0
0
0
0.115
0.276
0.46
0.618
0.733
0.786
0.766
0.678
0.52
0.209
0.11
0.04
0
0
0
0
0
0
0
0
0
0
0
0
0.098
0.237
0.384
0.304
0.361
0.387
0.377
0.568
0.793
0.306
0.161
0.033
0
0
0
0
0
0
0
0
0
0
0
0
0.099
0.398
0.396
0.876
0.635
0.4
0.665
0.345
0.273
0.185
0.164
0.031
0
0
0
0
0
0
0
0
0
0
0
0
0.01
0.024
0.039
0.053
0.063
0.067
0.066
0.058
0.046
0.031
0.016
0.003
0
0
0
0
0
0
0
0
0
0
0
0
0.202
0.136
0.223
0.865
0.36
0.387
0.377
0.333
0.262
0.177
0.329
0.015
0
0
0
0
0
0
0
0
0
0
0
0
0.063
0.33
0.545
0.366
0.437
0.949
0.458
0.816
0.641
0.431
0.108
0.034
0
0
0
0
0
0
0
0
0
0
0
0
0.102
0.158
0.445
0.615
0.734
0.789
0.769
0.678
0.532
0.356
0.179
0.025
0
0
0
0
0
0
0
0
0
0
0
0
0.1
0.32
0.447
0.359
0.73
0.937
0.764
0.395
0.527
0.42
0.209
0.026
0
0
0
0
0
0
0
0
0
0
0
0
0.077
0.124
0.353
0.494
0.579
0.636
0.619
0.545
0.417
0.283
0.137
0.009
0
0
0
0
0
0
0
0
0
0
0
0
0.091
0.102
0.431
0.237
0.284
0.761
0.742
0.262
0.204
0.135
0.066
0.006
0
0
0
0
0
0
0
0
0
0
0
0
0.076
0.102
0.173
0.509
0.285
0.307
0.64
0.562
0.438
0.289
0.065
0.005
0
0
0
0
0
0
0
0
0
0
0
0
0.072
0.211
0.36
0.212
0.596
0.275
0.267
0.235
0.427
0.281
0.057
0.009
0
0
0
0
0
0
0
0
0
0
0
0
0.045
0.134
0.106
0.146
0.382
0.189
0.4
0.161
0.273
0.179
0.085
0.002
0
0
0
0
0
0
0
0
0
0
0
0
0.072
0.222
0.225
0.53
0.638
0.404
0.67
0.345
0.267
0.297
0.276
0.004
0
0
0
0
0
0
0
0
0
0
0
0
0.064
0.109
0.352
0.489
0.59
0.636
0.331
0.542
0.224
0.272
0.126
0.001
0
0
0
0
0
0
0
0
0
0
0
0
0.082
0.102
0.179
0.648
0.301
0.324
0.315
0.718
0.554
0.138
0.063
0
0
0
0
0
0
0
0
0
0
0
0
0
0.077
0.255
0.449
0.626
0.756
0.816
0.794
0.694
0.535
0.345
0.156
0
0
0
0
0
0
0
0
0
0
0
0
0
0.07
0.241
0.426
0.596
0.721
0.779
0.757
0.661
0.509
0.327
0.146
0
0
0
0
0
0
0
0
0
0
0
0
0
0.024
0.086
0.153
0.214
0.26
0.28
0.273
0.238
0.183
0.117
0.051
0
0
0
0
0
0
0
0
0
0
0
0
0
0.024
0.087
0.156
0.22
0.266
0.288
0.28
0.244
0.187
0.119
0.052
0
0
0
0
0
0
0
0
0
0
0
0
0
0.051
0.369
0.347
0.288
0.35
0.378
0.625
0.32
0.245
0.155
0.067
0
0
0
0
0
0
0
0
0
0
0
0
0
0.03
0.208
0.377
0.534
0.649
0.702
0.682
0.594
0.453
0.165
0.121
0
0
0
0
0
0
0
0
0
0
0
0
0
0.046
0.088
0.344
0.488
0.28
0.644
0.626
0.256
0.195
0.26
0.051
0
0
0
0
0
0
0
0
0
0
0
0
0
0.005
0.023
0.042
0.059
0.072
0.078
0.076
0.066
0.05
0.031
0.013
0
0
0
0
0
0
0
0
0
0
0
0
0
0.026
0.117
0.102
0.311
0.177
0.411
0.399
0.162
0.123
0.164
0.066
0
0
0
0
0
0
0
0
0
0
0
0
0
0.04
0.112
0.209
0.299
0.622
0.758
0.654
0.638
0.483
0.299
0.119
0
0
0
0
0
0
0
0
0
0
0
0
0
0.038
0.194
0.14
0.201
0.644
0.699
0.259
0.224
0.169
0.104
0.041
0
0
0
0
0
0
0
0
0
0
0
0
0
0.036
0.083
0.158
0.227
0.657
0.302
0.294
0.599
0.452
0.277
0.045
0
0
0
0
0
0
0
0
0
0
0
0
0
0.023
0.13
0.11
0.36
0.442
0.211
0.465
0.177
0.133
0.082
0.07
0
0
0
0
0
0
0
0
0
0
0
0
0
0.015
0.174
0.336
0.487
0.331
0.65
0.631
0.545
0.409
0.137
0.092
0
0
0
0
0
0
0
0
0
0
0
0
0
0.028
0.191
0.373
0.542
0.667
0.725
0.703
0.607
0.454
0.275
0.1
0
0
0
0
0
0
0
0
0
0
0
0
0
0.014
0.183
0.206
0.523
0.645
0.702
0.681
0.587
0.438
0.264
0.094
0
0
0
0
0
0
0
0
0
0
0
0
0
0.018
0.298
0.297
0.434
0.315
0.583
0.332
0.286
0.363
0.406
0.076
0
0
0
0
0
0
0
0
0
0
0
0
0
0.022
0.085
0.407
0.597
0.31
0.803
0.327
0.281
0.209
0.124
0.101
0
0
0
0
0
0
0
0
0
0
0
0
0
0.009
0.167
0.337
0.497
0.615
0.67
0.65
0.558
0.414
0.245
0.082
0
0
0
0
0
0
0
0
0
0
0
0
0
0.012
0.19
0.319
0.472
0.344
0.374
0.618
0.644
0.477
0.281
0.091
0
0
0
0
0
0
0
0
0
0
0
0
0
0.009
0.089
0.182
0.46
0.697
0.623
0.737
0.518
0.225
0.131
0.071
0
0
0
0
0
0
0
0
0
0
0
0
0
0.004
0.098
0.204
0.303
0.189
0.206
0.399
0.342
0.252
0.147
0.023
0
0
0
0
0
0
0
0
0
0
0
0
0
0.009
0.062
0.486
0.194
0.242
0.264
0.256
0.219
0.161
0.093
0.028
0
0
0
0
0
0
0
0
0
0
0
0
0
0.001
0.049
0.259
0.156
0.195
0.213
0.511
0.176
0.321
0.184
0.022
0
0
0
0
0
0
0
0
0
0
0
0
0
0
0.114
0.143
0.215
0.269
0.294
0.484
0.243
0.303
0.36
0.049
0
0
0
0
0
0
0
0
0
0
0
0
0
0
0.025
0.055
0.083
0.104
0.113
0.11
0.093
0.068
0.039
0.011
0
0
0
0
0
0
0
0
0
0
0
0
0
0
0.152
0.332
0.503
0.631
0.69
0.668
0.569
0.415
0.234
0.062
0
0
0
0
0
0
0
0
0
0
0
0
0
0
0.142
0.314
0.477
0.599
0.655
0.634
0.54
0.392
0.22
0.056
0
0
0
0
0
0
0
0
0
0
0
0
0
0
0.117
0.292
0.402
0.297
0.553
0.593
0.455
0.366
0.184
0.045
0
0
0
0
0
0
0
0
0
0
0
0
0
0
0.102
0.136
0.208
0.445
0.667
0.472
0.235
0.29
0.22
0.038
0
0
0
0
0
0
0
0
0
0
0
0
0
0
0.073
0.292
0.449
0.567
0.621
0.601
0.51
0.368
0.116
0.046
0
0
0
0
0
0
0
0
0
0
0
0
0
0
0.079
0.075
0.115
0.358
0.159
0.379
0.131
0.094
0.127
0.011
0
0
0
0
0
0
0
0
0
0
0
0
0
0
0.097
0.229
0.147
0.449
0.203
0.197
0.167
0.29
0.157
0.013
0
0
0
0
0
0
0
0
0
0
0
0
0
0
0.011
0.027
0.042
0.053
0.058
0.057
0.048
0.034
0.018
0.004
0
0
0
0
0
0
0
0
0
0
0
0
0
0
0.068
0.28
0.437
0.555
0.609
0.589
0.498
0.355
0.191
0.035
0
0
0
0
0
0
0
0
0
0
0
0
0
0
0.101
0.252
0.394
0.501
0.551
0.532
0.441
0.314
0.098
0.029
0
0
0
0
0
0
0
0
0
0
0
0
0
0
0.104
0.111
0.404
0.223
0.245
0.547
0.2
0.328
0.173
0.012
0
0
0
0
0
0
0
0
0
0
0
0
0
0
0.185
0.122
0.193
0.246
0.271
0.262
0.221
0.156
0.082
0.013
0
0
0
0
0
0
0
0
0
0
0
0
0
0
0.099
0.149
0.236
0.513
0.614
0.593
0.5
0.353
0.17
0.014
0
0
0
0
0
0
0
0
0
0
0
0
0
0
0.094
0.108
0.172
0.493
0.242
0.524
0.197
0.311
0.161
0.009
0
0
0
0
0
0
0
0
0
0
0
0
0
0
0.051
0.134
0.386
0.495
0.546
0.527
0.443
0.172
0.16
0.019
0
0
0
0
0
0
0
0
0
0
0
0
0
0
0.033
0.088
0.142
0.182
0.201
0.194
0.163
0.114
0.058
0.006
0
0
0
0
0
0
0
0
0
0
0
0
0
0
0.103
0.126
0.203
0.576
0.288
0.614
0.233
0.36
0.083
0.018
0
0
0
0
0
0
0
0
0
0
0
0
0
0
0.067
0.108
0.298
0.599
0.424
0.409
0.201
0.14
0.071
0.01
0
0
0
0
0
0
0
0
0
0
0
0
0
0
0.044
0.216
0.197
0.452
0.499
0.481
0.403
0.28
0.14
0.011
0
0
0
0
0
0
0
0
0
0
0
0
0
0
0.082
0.247
0.401
0.518
0.573
0.522
0.256
0.303
0.16
0.01
0
0
0
0
0
0
0
0
0
0
0
0
0
0
0.078
0.253
0.365
0.277
0.522
0.569
0.476
0.291
0.084
0.004
0
0
0
0
0
0
0
0
0
0
0
0
0
0
0.069
0.201
0.531
0.427
0.278
0.456
0.224
0.263
0.129
0.008
0
0
0
0
0
0
0
0
0
0
0
0
0
0
0.044
0.248
0.217
0.282
0.586
0.565
0.471
0.325
0.158
0.005
0
0
0
0
0
0
0
0
0
0
0
0
0
0
0.062
0.189
0.313
0.406
0.442
0.433
0.361
0.245
0.069
0.002
0
0
0
0
0
0
0
0
0
0
0
0
0
0
0.061
0.188
0.183
0.405
0.672
0.433
0.212
0.145
0.119
0.001
0
0
0
0
0
0
0
0
0
0
0
0
0
0
0.114
0.088
0.146
0.19
0.211
0.203
0.576
0.116
0.055
0
0
0
0
0
0
0
0
0
0
0
0
0
0
0
0.037
0.119
0.198
0.131
0.286
0.276
0.116
0.157
0.074
0
0
0
0
0
0
0
0
0
0
0
0
0
0
0
0.038
0.213
0.357
0.466
0.517
0.498
0.414
0.161
0.133
0
0
0
0
0
0
0
0
0
0
0
0
0
0
0
0.038
0.213
0.357
0.467
0.518
0.499
0.414
0.282
0.132
0
0
0
0
0
0
0
0
0
0
0
0
0
0
0
0.037
0.212
0.356
0.467
0.518
0.499
0.414
0.281
0.131
0
0
0
0
0
0
0
0
0
0
0
0
0
0
0
0.058
0.297
0.498
0.433
0.282
0.463
0.225
0.153
0.12
0
0
0
0
0
0
0
0
0
0
0
0
0
0
0
0.085
0.294
0.135
0.177
0.196
0.189
0.157
0.392
0.049
0
0
0
0
0
0
0
0
0
0
0
0
0
0
0
0.051
0.186
0.316
0.398
0.461
0.444
0.353
0.14
0.109
0
0
0
0
0
0
0
0
0
0
0
0
0
0
0
0.047
0.099
0.169
0.378
0.637
0.404
0.196
0.226
0.06
0
0
0
0
0
0
0
0
0
0
0
0
0
0
0
0.052
0.082
0.141
0.185
0.473
0.455
0.164
0.254
0.05
0
0
0
0
0
0
0
0
0
0
0
0
0
0
0
0.079
0.288
0.161
0.212
0.235
0.227
0.546
0.126
0.057
0
0
0
0
0
0
0
0
0
0
0
0
0
0
0
0.005
0.017
0.03
0.039
0.044
0.042
0.035
0.023
0.01
0
0
0
0
0
0
0
0
0
0
0
0
0
0
0
0.053
0.226
0.389
0.454
0.297
0.486
0.401
0.304
0.135
0
0
0
0
0
0
0
0
0
0
0
0
0
0
0
0.068
0.106
0.445
0.242
0.641
0.259
0.214
0.143
0.154
0
0
0
0
0
0
0
0
0
0
0
0
0
0
0
0.048
0.197
0.34
0.424
0.501
0.482
0.375
0.147
0.065
0
0
0
0
0
0
0
0
0
0
0
0
0
0
0
0.042
0.306
0.285
0.221
0.42
0.404
0.195
0.131
0.057
0
0
0
0
0
0
0
0
0
0
0
0
0
0
0
0.044
0.304
0.297
0.231
0.258
0.248
0.204
0.137
0.06
0
0
0
0
0
0
0
0
0
0
0
0
0
0
0
0.026
0.198
0.344
0.236
0.508
0.254
0.402
0.268
0.117
0
0
0
0
0
0
0
0
0
0
0
0
0
0
0
0.027
0.188
0.328
0.434
0.484
0.466
0.383
0.256
0.111
0
0
0
0
0
0
0
0
0
0
0
0
0
0
0
0.042
0.17
0.297
0.231
0.258
0.422
0.451
0.301
0.131
0
0
0
0
0
0
0
0
0
0
0
0
0
0
0
0.052
0.212
0.369
0.199
0.222
0.213
0.433
0.117
0.051
0
0
0
0
0
0
0
0
0
0
0
0
0
0
0
0.003
0.011
0.02
0.026
0.029
0.028
0.023
0.016
0.007
0
0
0
0
0
0
0
0
0
0
0
0
0
0
0
0.051
0.211
0.369
0.188
0.21
0.202
0.432
0.111
0.048
0
0
0
0
0
0
0
0
0
0
0
0
0
0
0
0.011
0.046
0.08
0.106
0.118
0.113
0.093
0.062
0.027
0
0
0
0
0
0
0
0
0
0
0
0
0
0
0
0.04
0.164
0.286
0.445
0.424
0.408
0.197
0.223
0.113
0
0
0
0
0
0
0
0
0
0
0
0
0
0
0
0.034
0.067
0.116
0.323
0.36
0.166
0.285
0.189
0.039
0
0
0
0
0
0
0
0
0
0
0
0
0
0
0
0.042
0.103
0.305
0.416
0.464
0.435
0.367
0.245
0.106
0
0
0
0
0
0
0
0
0
0
0
0
0
0
0
0.026
0.182
0.318
0.422
0.471
0.453
0.373
0.248
0.107
0
0
0
0
0
0
0
0
0
0
0
0
0
0
0
0.037
0.16
0.265
0.352
0.414
0.398
0.311
0.122
0.089
0
0
0
0
0
0
0
0
0
0
0
0
0
0
0
0.026
0.193
0.188
0.447
0.498
0.48
0.395
0.263
0.064
0
0
0
0
0
0
0
0
0
0
0
0
0
0
0
0.043
0.103
0.18
0.406
0.266
0.436
0.474
0.316
0.137
0
0
0
0
0
0
0
0
0
0
0
0
0
0
0
0.042
0.224
0.301
0.234
0.445
0.556
0.353
0.138
0.06
0
0
0
0
0
0
0
0
0
0
0
0
0
0
0
0.038
0.154
0.295
0.391
0.436
0.382
0.185
0.21
0.054
0
0
0
0
0
0
0
0
0
0
0
0
0
0
0
0.04
0.172
0.3
0.374
0.417
0.426
0.33
0.13
0.096
0
0
0
0
0
0
0
0
0
0
0
0
0
0
0
0.039
0.304
0.267
0.208
0.232
0.223
0.313
0.123
0.054
0
0
0
0
0
0
0
